{
	"metadata": {
		"code": 401,
		"errorCode": 401104,
		"userMessage": "Authorization token is required",
		"developerMessage": "Authorization token is required.  "
	},
	"content": null
}
//NOTE: seeing two POST api.branch.io logouts as well, pasted below
{
	"session_id": "137592879890571992",
	"identity_id": "137592879819268822",
	"link": "https://bnc.lt/i/5cozv3E09K"
}
//and
{
	"session_id": "137592881937392366",
	"identity_id": "137592881908032237",
	"link": "https://bnc.lt/i/5cozx_k09h"
}

//request header below
POST /api/v1/logout?deviceToken=8ceef5661ba1022fbc846c77866aac8262c53e58c81d8d40e9a202a891911544 HTTP/1.1
Host: api.speakiesy.net
Content-Type: application/json;charset=UTF-8
Connection: keep-alive
X-API-Key: VJr9zqlEXa0d7RLXFeKOfkEvUQlKSqVhH3bHE2JBYmbtUn67dx4WOnbcEKrVUGITSb7ELS6rj0xjF7El7eVL3w2
Proxy-Connection: keep-alive
Accept: */*
User-Agent: Speakiesy/43 CFNetwork/711.3.18 Darwin/14.0.0
Accept-Language: en-us
Accept-Encoding: gzip, deflate
Content-Length: 0
Pragma: no-cache
Cache-Control: no-cache

