{
	"metadata": {
		"code": 201,
		"errorCode": -1,
		"userMessage": null,
		"developerMessage": null
	},
	"content": {
		"href": "http://api.speakiesy.net/api/v1/posts",
		"offset": 0,
		"limit": 1,
		"total": 1,
		"items": [{
			"href": "http://api.speakiesy.net/api/v1/posts/678E13D64CCA46F990399BEA255C27",
			"uuid": "678E13D64CCA46F990399BEA255C27",
			"administrative": false,
			"anonymous": false,
			"appearType": 0,
			"avatarPost": false,
			"blurredContentHref": null,
			"blurredThumbnailHref": null,
			"content": "Woo summer",
			"contentHref": null,
			"date": "2015-06-11T17:00:15.527Z",
			"isModerated": null,
			"lastActivityDate": "2015-06-11T17:00:15.558Z",
			"link": null,
			"orderNumber": 5773,
			"postStatus": 0,
			"postType": 0,
			"superPost": false,
			"thumbnailHref": null,
			"timeDisappearing": false,
			"timeout": null,
			"parent": null,
			"postCounter": {
				"href": "http://api.speakiesy.net/api/v1/postCounters/6505EA7E4F924133A8FD2242B881F6",
				"uuid": "6505EA7E4F924133A8FD2242B881F6"
			},
			"profile": null,
			"university": null,
			"comments": {
				"href": "http://api.speakiesy.net/api/v1/posts/678E13D64CCA46F990399BEA255C27/comments"
			},
			"hashTags": {
				"href": "http://api.speakiesy.net/api/v1/posts/678E13D64CCA46F990399BEA255C27/postHashTags"
			}
		}]
	}
}
